<svg width="18" height="19" viewBox="0 0 18 19" fill="none" xmlns="http://www.w3.org/2000/svg">
<g clip-path="url(#clip0)">
<path d="M9.00416 12.9473L1.18216 5.12529C0.911708 4.85488 0.473234 4.85488 0.20278 5.12529C-0.0675937 5.39579 -0.0675937 5.83422 0.20278 6.10468L8.51447 14.4164C8.78492 14.6867 9.2234 14.6867 9.49385 14.4164L17.8055 6.10468C18.0713 5.82951 18.0637 5.39104 17.7885 5.12529C17.5201 4.86608 17.0945 4.86608 16.8262 5.12529L9.00416 12.9473Z" fill="white"/>
</g>
<defs>
<clipPath id="clip0">
<rect width="18" height="18" fill="white" transform="translate(0 18.7715) rotate(-90)"/>
</clipPath>
</defs>
</svg>
