<svg width="35" height="35" viewBox="0 0 35 35" fill="none" xmlns="http://www.w3.org/2000/svg">
<path d="M25.5143 3.07363C30.5758 5.8915 34 11.2959 34 17.5C34 26.6127 26.6127 34 17.5 34C14.9694 34 12.5718 33.4303 10.4286 32.4122M21.7429 1.55062C20.389 1.19141 18.9669 1 17.5 1C8.3873 1 1 8.3873 1 17.5C1 23.3106 4.00358 28.4198 8.54286 31.3595" stroke="#001937" stroke-linecap="round" stroke-linejoin="round"/>
<path d="M13.322 22H11.53V21.132C10.9793 21.8227 10.284 22.168 9.444 22.168C8.56667 22.168 7.848 21.8553 7.288 21.23C6.728 20.5953 6.448 19.7273 6.448 18.626C6.448 17.5433 6.728 16.68 7.288 16.036C7.848 15.392 8.56667 15.07 9.444 15.07C10.3027 15.07 10.998 15.4153 11.53 16.106V12.662H13.322V22ZM9.99 20.586C10.2887 20.586 10.5827 20.516 10.872 20.376C11.1613 20.2267 11.3807 20.04 11.53 19.816V17.422C11.3807 17.198 11.1613 17.016 10.872 16.876C10.5827 16.7267 10.2887 16.652 9.99 16.652C9.486 16.652 9.07533 16.834 8.758 17.198C8.44067 17.562 8.282 18.038 8.282 18.626C8.282 19.2047 8.44067 19.676 8.758 20.04C9.07533 20.404 9.486 20.586 9.99 20.586ZM20.1951 22H15.1271V12.662H20.0411C20.8905 12.662 21.5485 12.8953 22.0151 13.362C22.4911 13.8193 22.7291 14.3793 22.7291 15.042C22.7291 15.6113 22.5751 16.0873 22.2671 16.47C21.9591 16.8527 21.5765 17.0907 21.1191 17.184C21.6231 17.2587 22.0478 17.5153 22.3931 17.954C22.7385 18.3927 22.9111 18.9013 22.9111 19.48C22.9111 20.208 22.6731 20.81 22.1971 21.286C21.7211 21.762 21.0538 22 20.1951 22ZM19.6071 16.4C19.9431 16.4 20.2091 16.3067 20.4051 16.12C20.6011 15.9333 20.6991 15.6907 20.6991 15.392C20.6991 15.0933 20.5965 14.8507 20.3911 14.664C20.1951 14.468 19.9338 14.37 19.6071 14.37H17.1151V16.4H19.6071ZM19.6771 20.278C20.0505 20.278 20.3445 20.1847 20.5591 19.998C20.7738 19.802 20.8811 19.536 20.8811 19.2C20.8811 18.892 20.7738 18.6353 20.5591 18.43C20.3445 18.2153 20.0505 18.108 19.6771 18.108H17.1151V20.278H19.6771Z" fill="#F15A24"/>
<path d="M27 27L29.8868 22L24.1132 22L27 27ZM26.5 10L26.5 22.5L27.5 22.5L27.5 10L26.5 10Z" fill="#F15A24"/>
</svg>
