<svg width="18" height="18" viewBox="0 0 18 18" fill="none" xmlns="http://www.w3.org/2000/svg">
<g clip-path="url(#clip0)">
<path fill-rule="evenodd" clip-rule="evenodd" d="M8.57621 0.866211C3.86809 0.866211 0.0507812 4.78042 0.0507812 9.60805C0.0507812 13.4701 2.49307 16.7474 5.88122 17.9026C6.30756 17.9837 6.46426 17.713 6.46426 17.4813C6.46426 17.2729 6.45579 16.5839 6.45297 15.8543C4.07985 16.3826 3.5801 14.8236 3.5801 14.8236C3.19188 13.8132 2.63424 13.544 2.63424 13.544C1.86062 13.0011 2.69212 13.0127 2.69212 13.0127C3.54763 13.075 3.99938 13.9131 3.99938 13.9131C4.7603 15.2492 5.99416 14.8627 6.47979 14.6398C6.55602 14.0752 6.77766 13.6887 7.02048 13.4701C5.12735 13.2487 3.13682 12.4988 3.13682 9.15062C3.13682 8.19667 3.46999 7.41644 4.01491 6.80412C3.92597 6.58409 3.63516 5.69528 4.09679 4.49091C4.09679 4.49091 4.81254 4.2564 6.44167 5.38695C7.12213 5.19298 7.85058 5.09599 8.57621 5.0931C9.30042 5.09599 10.0303 5.19298 10.7121 5.38695C12.3399 4.2564 13.0542 4.49091 13.0542 4.49091C13.5187 5.69528 13.2264 6.58409 13.1375 6.80412C13.6838 7.41644 14.0142 8.19667 14.0142 9.15062C14.0142 12.5075 12.0194 13.2472 10.122 13.4644C10.4284 13.7351 10.7009 14.2678 10.7009 15.0827C10.7009 16.2524 10.691 17.1933 10.691 17.4813C10.691 17.7144 10.8449 17.9865 11.2768 17.9011C14.6622 16.7445 17.1016 13.4687 17.1016 9.60805C17.1016 4.78042 13.2843 0.866211 8.57621 0.866211Z" fill="#001937"/>
<path d="M3.27945 13.4166C3.2611 13.46 3.19334 13.4731 3.13264 13.4427C3.07053 13.4137 3.03665 13.3544 3.05641 13.3109C3.07476 13.2661 3.14111 13.2545 3.20322 13.2834C3.26534 13.3138 3.30063 13.3732 3.27945 13.4166Z" fill="#001937"/>
<path d="M3.6264 13.8117C3.58547 13.8508 3.50641 13.832 3.45277 13.7712C3.3963 13.7104 3.38642 13.6294 3.42736 13.5903C3.46971 13.5512 3.54594 13.57 3.60241 13.6308C3.65746 13.6916 3.66875 13.7727 3.6264 13.8117Z" fill="#001937"/>
<path d="M3.96005 14.3153C3.90782 14.353 3.8217 14.3182 3.76947 14.2401C3.71724 14.1619 3.71724 14.0693 3.77088 14.0316C3.82312 13.994 3.90782 14.0273 3.96146 14.1054C4.0137 14.1836 4.0137 14.2777 3.96005 14.3153Z" fill="#001937"/>
<path d="M4.42077 14.8017C4.37418 14.8553 4.27395 14.8408 4.20195 14.7684C4.12713 14.6975 4.10736 14.5976 4.15395 14.5455C4.20195 14.492 4.30077 14.5079 4.37418 14.5788C4.44759 14.6483 4.47018 14.7496 4.42077 14.8017Z" fill="#001937"/>
<path d="M5.05576 15.0841C5.03458 15.1521 4.93859 15.184 4.84259 15.155C4.74659 15.1246 4.68306 15.045 4.70283 14.9755C4.72259 14.906 4.81859 14.8742 4.916 14.9046C5.01341 14.935 5.07552 15.0146 5.05576 15.0841Z" fill="#001937"/>
<path d="M5.75236 15.1362C5.75518 15.2086 5.6733 15.2679 5.57165 15.2694C5.47001 15.2723 5.38672 15.2129 5.38672 15.142C5.38672 15.0696 5.46719 15.0103 5.56883 15.0088C5.66906 15.0074 5.75236 15.0653 5.75236 15.1362Z" fill="#001937"/>
<path d="M6.40333 15.0233C6.41604 15.0942 6.34545 15.1651 6.24381 15.1854C6.14499 15.2042 6.05322 15.1608 6.04052 15.0913C6.02781 15.0189 6.09981 14.9466 6.19863 14.9277C6.30028 14.9089 6.39063 14.9523 6.40333 15.0233Z" fill="#001937"/>
</g>
<defs>
<clipPath id="clip0">
<rect width="17.0508" height="17.0508" fill="white" transform="translate(0.0507812 0.866211)"/>
</clipPath>
</defs>
</svg>
