<svg width="35" height="35" viewBox="0 0 35 35" fill="none" xmlns="http://www.w3.org/2000/svg">
<path d="M18.3531 15.8595H12.6766C12.5315 15.8595 12.3924 15.8019 12.2899 15.6993C12.1873 15.5967 12.1297 15.4576 12.1297 15.3126V8.88135L7 19.1407H12.6766C12.8216 19.1407 12.9607 19.1983 13.0633 19.3009C13.1658 19.4035 13.2234 19.5426 13.2234 19.6876V26.1189L18.3531 15.8595Z" fill="#F15A24"/>
<path d="M2.18759 17.5C2.19207 13.4402 3.80679 9.54804 6.67747 6.67737C9.54815 3.80669 13.4403 2.19197 17.5001 2.18748C19.4545 2.1825 21.3914 2.55577 23.204 3.2867C23.2368 3.30311 23.2751 3.31404 23.3079 3.33045L23.4118 3.07889L23.7235 2.31326C21.2311 1.29505 18.5266 0.905341 15.8481 1.17845C13.1697 1.45156 10.5994 2.37912 8.36384 3.87942C6.12825 5.37972 4.29587 7.40674 3.02811 9.78193C1.76034 12.1571 1.09608 14.8076 1.09384 17.5C1.08328 20.722 2.03128 23.8744 3.81727 26.5562C3.86343 26.4989 3.91273 26.4441 3.96493 26.3922C4.17249 26.1814 4.41025 26.0026 4.6704 25.8617C3.03955 23.3788 2.17603 20.4706 2.18759 17.5Z" fill="#001937"/>
<path d="M31.1836 8.44385C31.1374 8.50121 31.0881 8.55599 31.0359 8.60791C30.8284 8.81872 30.5906 8.9975 30.3305 9.13838C31.9606 11.6216 32.8241 14.5296 32.8133 17.5001C32.8088 21.5598 31.1941 25.452 28.3234 28.3227C25.4527 31.1934 21.5605 32.8081 17.5008 32.8126C15.5463 32.8182 13.6093 32.4449 11.7969 31.7134C11.7614 31.703 11.7267 31.6902 11.693 31.6751L11.5945 31.9157L11.2773 32.6868C13.7697 33.705 16.4743 34.0947 19.1527 33.8216C21.8312 33.5485 24.4014 32.621 26.637 31.1207C28.8726 29.6204 30.705 27.5933 31.9728 25.2181C33.2405 22.843 33.9048 20.1925 33.907 17.5001C33.9176 14.278 32.9696 11.1256 31.1836 8.44385Z" fill="#001937"/>
<path d="M9.37916 28.7141L7.83205 27.1676C7.4218 26.7573 6.86539 26.5269 6.28521 26.5269C5.70504 26.5269 5.14862 26.7573 4.73838 27.1676C4.32813 27.5778 4.09766 28.1342 4.09766 28.7144C4.09766 29.2946 4.32813 29.851 4.73838 30.2612L6.28549 31.8078L6.67213 31.4212L8.60533 33.3544L9.37861 32.5811L7.44541 30.6479L8.21869 29.8746L10.1524 31.8078L10.9257 31.0345L8.99197 29.1008L9.37916 28.7141Z" fill="#001937"/>
<path d="M25.6208 6.28574L27.1679 7.8323C27.5781 8.24255 28.1346 8.47302 28.7147 8.47302C29.2949 8.47302 29.8513 8.24255 30.2616 7.8323C30.6718 7.42206 30.9023 6.86564 30.9023 6.28547C30.9023 5.70529 30.6718 5.14888 30.2616 4.73863L28.7145 3.19207L28.3278 3.57871L26.3946 1.64551L25.6213 2.41879L27.5545 4.35199L26.7813 5.12527L24.8475 3.19207L24.0742 3.96535L26.008 5.8991L25.6208 6.28574Z" fill="#001937"/>
<path d="M23.332 29.1667L26.2188 24.1667H20.4453L23.332 29.1667ZM22.832 7V24.6667H23.832V7H22.832Z" fill="#F15A24"/>
</svg>
