<svg width="58" height="58" viewBox="0 0 58 58" fill="none" xmlns="http://www.w3.org/2000/svg">
<g clip-path="url(#clip0)">
<path d="M29.0013 0C18.3411 0 9.66797 8.67315 9.66797 19.3334C9.66797 22.5336 10.4681 25.7066 11.9891 28.5209L27.9441 57.377C28.1565 57.7617 28.5612 58 29.0013 58C29.4414 58 29.8462 57.7617 30.0586 57.377L46.0195 28.5114C47.5346 25.7066 48.3347 22.5335 48.3347 19.3333C48.3347 8.67315 39.6616 0 29.0013 0ZM29.0013 29C23.6712 29 19.3347 24.6635 19.3347 19.3334C19.3347 14.0033 23.6712 9.66674 29.0013 9.66674C34.3314 9.66674 38.668 14.0033 38.668 19.3334C38.668 24.6635 34.3314 29 29.0013 29Z" fill="#F15A24"/>
</g>
<defs>
<clipPath id="clip0">
<rect width="58" height="58" fill="white"/>
</clipPath>
</defs>
</svg>
